1 10 20
100 200 125
201 210 89
900 1000 174
997254 998164 440
647225 646371 323
980057 979157 334
421503 421651 250
17030 16712 266
646974 647024 217
353299 353959 273
927322 927838 339
664750 664965 292
864191 863685 344
126683 125946 318
89724 90658 315
847216 847085 282
256906 257023 345
895038 895066 220
28062 28124 197
601184 600329 341
56874 57007 260
60748 60653 242
958133 957948 339
784258 784685 313
778118 778878 437
238049 237372 350
600417 600390 235
901858 902202 401
545175 545373 315
944880 944921 246
979139 978963 290
582884 583167 328
180622 180568 210
630210 630138 279
944355 943877 352
357160 356176 317
12831 13417 276
303459 302514 340
485932 485731 338
573118 573379 253
947755 948053 277
906594 907163 339
341367 341420 260
845409 845531 282
142211 141646 326
812670 812277 344
833879 833142 357
436096 435891 325
505625 504684 364
895371 895093 264
577704 577517 271
204167 203537 280
707838 708577 349
717794 718428 318
110057 110047 186
563355 563470 253
750115 750806 362
105641 105237 310
17289 17828 279
972517 971972 277
659955 658960 354
189268 190204 360
982239 982881 383
245531 245870 319
270068 269233 345
894058 894771 370
979936 980098 246
298830 299411 371
756247 755714 362
46577 46879 252
522296 522223 196
915549 914890 370
131844 131852 207
327514 328049 322
96496 95696 297
509261 509718 289
241427 241556 244
204893 205062 280
208133 208686 311
415042 414821 281
874499 874817 326
183248 184117 285
257510 257242 332
133334 132354 331
211677 211638 156
627900 628756 279
683546 683764 230
522127 521190 364
206316 206127 311
950625 950113 321
315865 316239 322
349821 350074 304
735868 735613 424
590314 591148 359
814661 814248 269
322843 323156 278
41808 42075 257
321457 322284 278
460377 459526 307
914868 915293 370
550741 550528 346
979125 979309 321
872713 873177 326
852224 852335 282
503551 503285 258
676511 675894 385
465100 465870 369
954580 954755 277
105633 105939 279
157804 158223 246
700393 700277 367
200278 199980 311
25524 24546 264
972496 972307 246
261691 261854 288
865568 866377 388
921737 922044 277
345253 345054 304
981912 981734 321
872927 873877 326
923910 923246 308
718967 719266 305
863723 863147 295
905361 904503 383
138234 137856 282
608050 608528 403
94440 94720 315
997961 998044 228
61535 62137 317
247690 248217 319
336305 335871 366
695843 695622 274
69017 69803 299
18947 19300 212
949992 949096 352
383899 384218 286
103897 103754 248
613438 612834 310
428646 428018 294
279353 278851 314
372944 373581 348
410067 409655 449
219446 219421 293
298884 299382 327
252525 252284 319
641318 641973 372
368135 367267 286
625571 625608 297
172613 172281 303
997306 997707 321
93433 93336 284
834092 834178 313
901190 901190 114
