.............
----------------------------------------------------------------------
Ran 13 tests in 0.017s

OK
Name             Stmts   Miss Branch BrPart  Cover   Missing
------------------------------------------------------------
Collatz.py          39      8     16      2    75%   42-49, 53
TestCollatz.py      65      4      2      0    94%   37-40
------------------------------------------------------------
TOTAL              104     12     18      2    85%
